{
	"info": {
		"_postman_id": "2b2f8ff5-4a6a-4b87-a58f-0bcca2adc6be",
		"name": "crm-backend",
		"schema": "https://schema.getpostman.com/json/collection/v2.1.0/collection.json",
		"_exporter_id": "26860028"
	},
	"item": [
		{
			"name": "Contact",
			"item": [
				{
					"name": "Detail Contact",
					"item": [
						{
							"name": "Get all list by contact id",
							"protocolProfileBehavior": {
								"disableBodyPruning": true
							},
							"request": {
								"method": "GET",
								"header": [
									{
										"key": "Authorization",
										"value": "{{Authorization}}",
										"type": "text"
									}
								],
								"body": {
									"mode": "raw",
									"raw": "{\"id\":\"1\"}"
								},
								"url": {
									"raw": "{{host}}/contact/lists?contact_id=1",
									"host": [
										"{{host}}"
									],
									"path": [
										"contact",
										"lists"
									],
									"query": [
										{
											"key": "contact_id",
											"value": "1"
										}
									]
								}
							},
							"response": []
						},
						{
							"name": "Add Existing Deals for contact",
							"request": {
								"method": "POST",
								"header": [
									{
										"key": "Authorization",
										"value": "{{Authorization}}"
									}
								],
								"body": {
									"mode": "formdata",
									"formdata": [
										{
											"key": "contact_id",
											"value": "279",
											"type": "text"
										},
										{
											"key": "list_deals[]",
											"value": "3",
											"type": "text"
										}
									]
								},
								"url": {
									"raw": "{{host}}/contact/addExistingDeals",
									"host": [
										"{{host}}"
									],
									"path": [
										"contact",
										"addExistingDeals"
									]
								}
							},
							"response": []
						},
						{
							"name": "Get Contact By Id",
							"protocolProfileBehavior": {
								"disableBodyPruning": true
							},
							"request": {
								"method": "GET",
								"header": [
									{
										"key": "Authorization",
										"value": "{{Authorization}}",
										"type": "text"
									}
								],
								"body": {
									"mode": "raw",
									"raw": "{\"id\":\"1\"}",
									"options": {
										"raw": {
											"language": "json"
										}
									}
								},
								"url": {
									"raw": "{{host}}/getContactById?id=279",
									"host": [
										"{{host}}"
									],
									"path": [
										"getContactById"
									],
									"query": [
										{
											"key": "id",
											"value": "279"
										}
									]
								}
							},
							"response": []
						}
					]
				},
				{
					"name": "Get Contacts",
					"request": {
						"method": "GET",
						"header": [
							{
								"key": "Authorization",
								"value": "{{Authorization}}",
								"type": "text"
							}
						],
						"url": {
							"raw": "{{host}}/contact?page=1&flag=is_blacklist",
							"host": [
								"{{host}}"
							],
							"path": [
								"contact"
							],
							"query": [
								{
									"key": "page",
									"value": "1"
								},
								{
									"key": "stage",
									"value": "potential_customer",
									"disabled": true
								},
								{
									"key": "unit",
									"value": "vmu",
									"disabled": true
								},
								{
									"key": "contact_list_id",
									"value": "1,2,4",
									"disabled": true
								},
								{
									"key": "create_date_start",
									"value": "2023-03-10",
									"disabled": true
								},
								{
									"key": "create_date_end",
									"value": "2023-03-10",
									"description": "bắt buộc create_date_start, create_date_end đồng thời có, nếu không sẽ bỏ qua",
									"disabled": true
								},
								{
									"key": "update_date_start",
									"value": null,
									"disabled": true
								},
								{
									"key": "update_date_end",
									"value": null,
									"description": "bắt buộc update_date_start, update_date_end đồng thời có, nếu không sẽ bỏ qua",
									"disabled": true
								},
								{
									"key": "flag",
									"value": "is_blacklist",
									"description": "all|is_blacklist"
								}
							]
						}
					},
					"response": []
				},
				{
					"name": "Create Contact",
					"request": {
						"method": "POST",
						"header": [
							{
								"key": "Authorization",
								"value": "{{Authorization}}",
								"type": "text"
							}
						],
						"body": {
							"mode": "raw",
							"raw": "{\n  \"name\":\"Hoang Phan Bao 3\", \n  \"website\" :\"http://118.71.204.98/\",\n  \"type\":\"individual\",\n  \"phone\":\"0988888888\",\n  \"stage\":\"iql\"\n}",
							"options": {
								"raw": {
									"language": "json"
								}
							}
						},
						"url": {
							"raw": "{{host}}/contact",
							"host": [
								"{{host}}"
							],
							"path": [
								"contact"
							]
						}
					},
					"response": []
				},
				{
					"name": "Update Contact",
					"request": {
						"method": "PUT",
						"header": [
							{
								"key": "Authorization",
								"value": "{{Authorization}}",
								"type": "text"
							}
						],
						"body": {
							"mode": "urlencoded",
							"urlencoded": [
								{
									"key": "id",
									"value": "285",
									"type": "text"
								},
								{
									"key": "name",
									"value": "4444",
									"type": "text"
								},
								{
									"key": "type",
									"value": "individual",
									"type": "text"
								},
								{
									"key": "website",
									"value": "http://118.71.204.98/121",
									"type": "text"
								},
								{
									"key": "stage",
									"value": "sql",
									"type": "text"
								},
								{
									"key": "contact_list_id",
									"value": "1",
									"description": "bắt buộc đối với trường hợp update stage",
									"type": "text"
								}
							]
						},
						"url": {
							"raw": "{{host}}/contact",
							"host": [
								"{{host}}"
							],
							"path": [
								"contact"
							]
						}
					},
					"response": []
				},
				{
					"name": "Get Contact By Id",
					"protocolProfileBehavior": {
						"disableBodyPruning": true
					},
					"request": {
						"method": "GET",
						"header": [
							{
								"key": "Authorization",
								"value": "{{Authorization}}",
								"type": "text"
							}
						],
						"body": {
							"mode": "raw",
							"raw": "{\"id\":\"1\"}",
							"options": {
								"raw": {
									"language": "json"
								}
							}
						},
						"url": {
							"raw": "{{host}}/getContactById?id=308",
							"host": [
								"{{host}}"
							],
							"path": [
								"getContactById"
							],
							"query": [
								{
									"key": "id",
									"value": "308"
								}
							]
						}
					},
					"response": []
				},
				{
					"name": "Import Contact By CSV File",
					"request": {
						"method": "POST",
						"header": [],
						"body": {
							"mode": "formdata",
							"formdata": [
								{
									"key": "file",
									"type": "file",
									"src": "/Users/ducnt/Downloads/sample.csv"
								},
								{
									"key": "name",
									"value": "322323",
									"type": "text"
								}
							]
						},
						"url": {
							"raw": "{{host}}/importContactByCsv",
							"host": [
								"{{host}}"
							],
							"path": [
								"importContactByCsv"
							]
						}
					},
					"response": []
				},
				{
					"name": "Get  Contact By ListId",
					"request": {
						"method": "GET",
						"header": [],
						"url": {
							"raw": "{{host}}/getContactByListId?contactListId=8",
							"host": [
								"{{host}}"
							],
							"path": [
								"getContactByListId"
							],
							"query": [
								{
									"key": "contactListId",
									"value": "8"
								}
							]
						}
					},
					"response": []
				},
				{
					"name": "update Stage",
					"request": {
						"method": "POST",
						"header": [
							{
								"key": "Authorization",
								"value": "{{Authorization}}",
								"type": "text"
							}
						],
						"body": {
							"mode": "urlencoded",
							"urlencoded": [
								{
									"key": "contact_id",
									"value": "279",
									"type": "text"
								},
								{
									"key": "contact_list_id",
									"value": "1",
									"type": "text"
								},
								{
									"key": "stage",
									"value": "iql",
									"type": "text"
								}
							]
						},
						"url": {
							"raw": "{{host}}/contact/updateStage",
							"host": [
								"{{host}}"
							],
							"path": [
								"contact",
								"updateStage"
							]
						}
					},
					"response": []
				},
				{
					"name": "add To Black List",
					"request": {
						"method": "POST",
						"header": [
							{
								"key": "Authorization",
								"value": "{{Authorization}}",
								"type": "text"
							}
						],
						"body": {
							"mode": "urlencoded",
							"urlencoded": [
								{
									"key": "contacts",
									"value": "71,73,74",
									"type": "text"
								}
							]
						},
						"url": {
							"raw": "{{host}}/contact/addToBlackList",
							"host": [
								"{{host}}"
							],
							"path": [
								"contact",
								"addToBlackList"
							]
						}
					},
					"response": []
				},
				{
					"name": "remove from blacklist",
					"request": {
						"method": "POST",
						"header": [
							{
								"key": "Authorization",
								"value": "{{Authorization}}",
								"type": "text"
							}
						],
						"body": {
							"mode": "urlencoded",
							"urlencoded": [
								{
									"key": "contacts",
									"value": "71,73,74",
									"type": "text"
								}
							]
						},
						"url": {
							"raw": "{{host}}/contact/removeFromBlacklist",
							"host": [
								"{{host}}"
							],
							"path": [
								"contact",
								"removeFromBlacklist"
							]
						}
					},
					"response": []
				},
				{
					"name": "Get Contacts for input",
					"request": {
						"method": "GET",
						"header": [
							{
								"key": "Authorization",
								"value": "{{Authorization}}",
								"type": "text"
							}
						],
						"url": {
							"raw": "{{host}}/contact/inputContact?page=1&search=&deal_id=1",
							"host": [
								"{{host}}"
							],
							"path": [
								"contact",
								"inputContact"
							],
							"query": [
								{
									"key": "page",
									"value": "1"
								},
								{
									"key": "search",
									"value": ""
								},
								{
									"key": "deal_id",
									"value": "1"
								}
							]
						}
					},
					"response": []
				},
				{
					"name": "delete contact",
					"request": {
						"method": "POST",
						"header": [
							{
								"key": "Authorization",
								"value": "{{Authorization}}",
								"type": "text"
							}
						],
						"body": {
							"mode": "urlencoded",
							"urlencoded": [
								{
									"key": "contacts",
									"value": "71,73,74",
									"type": "text"
								},
								{
									"key": "_method",
									"value": "delete",
									"type": "text"
								}
							]
						},
						"url": {
							"raw": "{{host}}/contact/destroy",
							"host": [
								"{{host}}"
							],
							"path": [
								"contact",
								"destroy"
							]
						}
					},
					"response": []
				},
				{
					"name": "addToList",
					"request": {
						"method": "POST",
						"header": [
							{
								"key": "Authorization",
								"value": "{{Authorization}}"
							}
						],
						"body": {
							"mode": "urlencoded",
							"urlencoded": [
								{
									"key": "type",
									"value": "add_existing",
									"description": "add_existing|add_new bắt buộc",
									"type": "text"
								},
								{
									"key": "contact_list_id",
									"value": "21",
									"description": "bắt buộc nếu type add_existing",
									"type": "text"
								},
								{
									"key": "name",
									"value": "abc",
									"description": "bắt buộc nếu type add_new, max:255",
									"type": "text"
								},
								{
									"key": "unit_id",
									"value": "",
									"description": "bắt buộc nếu type add_new",
									"type": "text"
								},
								{
									"key": "source",
									"value": "",
									"description": "max:255",
									"type": "text"
								},
								{
									"key": "option",
									"value": "select_limit",
									"description": "select_all|select_limit",
									"type": "text"
								},
								{
									"key": "contact_ids",
									"value": "10782",
									"description": "bắt buộc nếu option select_limit, 1 id contact hoặc array contact",
									"type": "text"
								},
								{
									"key": "search",
									"value": "",
									"description": "bắt buộc nếu option select_all",
									"type": "text"
								}
							]
						},
						"url": {
							"raw": "{{host}}/contact/addToList",
							"host": [
								"{{host}}"
							],
							"path": [
								"contact",
								"addToList"
							]
						}
					},
					"response": []
				}
			]
		},
		{
			"name": "Contact Point",
			"item": [
				{
					"name": "Get all contact point by contact id",
					"protocolProfileBehavior": {
						"disableBodyPruning": true
					},
					"request": {
						"method": "GET",
						"header": [
							{
								"key": "Authorization",
								"value": "{{Authorization}}",
								"type": "text"
							}
						],
						"body": {
							"mode": "urlencoded",
							"urlencoded": [
								{
									"key": "id",
									"value": "1",
									"type": "text"
								}
							]
						},
						"url": {
							"raw": "{{host}}/contact/contactPoints?contact_id=1",
							"host": [
								"{{host}}"
							],
							"path": [
								"contact",
								"contactPoints"
							],
							"query": [
								{
									"key": "contact_id",
									"value": "1"
								}
							]
						}
					},
					"response": []
				},
				{
					"name": "Remove  Existing Contact Point",
					"request": {
						"method": "POST",
						"header": [
							{
								"key": "Authorization",
								"value": "{{Authorization}}",
								"type": "text"
							}
						],
						"body": {
							"mode": "formdata",
							"formdata": [
								{
									"key": "contact_id",
									"value": "307",
									"type": "text"
								},
								{
									"key": "list_contact_points",
									"value": "13",
									"type": "text"
								}
							]
						},
						"url": {
							"raw": "{{host}}/contact/removeExistingContactPoints",
							"host": [
								"{{host}}"
							],
							"path": [
								"contact",
								"removeExistingContactPoints"
							]
						}
					},
					"response": []
				},
				{
					"name": "Add Existing Contact Points",
					"request": {
						"method": "POST",
						"header": [
							{
								"key": "Authorization",
								"value": "{{Authorization}}",
								"type": "text"
							}
						],
						"body": {
							"mode": "formdata",
							"formdata": [
								{
									"key": "contact_id",
									"value": "279",
									"type": "text"
								},
								{
									"key": "list_contact_points[]",
									"value": "3",
									"type": "text"
								}
							]
						},
						"url": {
							"raw": "{{host}}/contact/addExistingContactPoints",
							"host": [
								"{{host}}"
							],
							"path": [
								"contact",
								"addExistingContactPoints"
							]
						}
					},
					"response": []
				},
				{
					"name": "Get Contact Point By Id",
					"request": {
						"method": "GET",
						"header": [
							{
								"key": "Authorization",
								"value": "{{Authorization}}",
								"type": "text"
							}
						],
						"url": {
							"raw": "{{host}}/getContactPointById?id=3",
							"host": [
								"{{host}}"
							],
							"path": [
								"getContactPointById"
							],
							"query": [
								{
									"key": "id",
									"value": "3"
								}
							]
						}
					},
					"response": []
				},
				{
					"name": "Create Contact Point",
					"request": {
						"method": "POST",
						"header": [
							{
								"key": "Authorization",
								"value": "{{Authorization}}",
								"type": "text"
							}
						],
						"body": {
							"mode": "raw",
							"raw": "{\n    \"contact_id\": 279,\n    \"address\": \"http://eeee.com\",\n    \"email\": \"aaa123@gmail.com\",\n}",
							"options": {
								"raw": {
									"language": "json"
								}
							}
						},
						"url": {
							"raw": "{{host}}/contactPoint",
							"host": [
								"{{host}}"
							],
							"path": [
								"contactPoint"
							]
						}
					},
					"response": []
				},
				{
					"name": "Update Contact Point",
					"request": {
						"method": "PUT",
						"header": [
							{
								"key": "Authorization",
								"value": "{{Authorization}}",
								"type": "text"
							}
						],
						"body": {
							"mode": "raw",
							"raw": "{\n    \"id\":1,\n    \"full_name\":\"Ducc1\"\n\n}",
							"options": {
								"raw": {
									"language": "json"
								}
							}
						},
						"url": {
							"raw": "{{host}}/contactPoint",
							"host": [
								"{{host}}"
							],
							"path": [
								"contactPoint"
							]
						}
					},
					"response": []
				},
				{
					"name": "get all contact Point add existing contact",
					"request": {
						"method": "GET",
						"header": [
							{
								"key": "Authorization",
								"value": "{{Authorization}}",
								"type": "text"
							}
						],
						"url": {
							"raw": "{{host}}/allcontactPoint?deal_id=37",
							"host": [
								"{{host}}"
							],
							"path": [
								"allcontactPoint"
							],
							"query": [
								{
									"key": "search",
									"value": "aaa@gmail.co",
									"disabled": true
								},
								{
									"key": "contact_id",
									"value": "",
									"disabled": true
								},
								{
									"key": "deal_id",
									"value": "37"
								}
							]
						}
					},
					"response": []
				},
				{
					"name": "Get ContactPoint for input",
					"request": {
						"method": "GET",
						"header": [
							{
								"key": "Authorization",
								"value": "{{Authorization}}",
								"type": "text"
							}
						],
						"url": {
							"raw": "{{host}}/inputContactPoint?page=1&search=",
							"host": [
								"{{host}}"
							],
							"path": [
								"inputContactPoint"
							],
							"query": [
								{
									"key": "page",
									"value": "1"
								},
								{
									"key": "search",
									"value": "",
									"description": "search name"
								}
							]
						}
					},
					"response": []
				}
			]
		},
		{
			"name": "Contact List",
			"item": [
				{
					"name": "Get Contact List",
					"request": {
						"method": "GET",
						"header": [
							{
								"key": "Authorization",
								"value": "{{Authorization}}",
								"type": "text"
							}
						],
						"url": {
							"raw": "{{host}}/contactList?search=text&units=jmu,vmu",
							"host": [
								"{{host}}"
							],
							"path": [
								"contactList"
							],
							"query": [
								{
									"key": "search",
									"value": "text",
									"description": "search by name or source"
								},
								{
									"key": "units",
									"value": "jmu,vmu"
								}
							]
						}
					},
					"response": []
				},
				{
					"name": "Create Contact List",
					"request": {
						"method": "POST",
						"header": [
							{
								"key": "Authorization",
								"value": "{{Authorization}}",
								"type": "text"
							}
						],
						"body": {
							"mode": "raw",
							"raw": "{\n    \"name\":\"Duc Chim3\"\n}",
							"options": {
								"raw": {
									"language": "json"
								}
							}
						},
						"url": {
							"raw": "{{host}}/contactList",
							"host": [
								"{{host}}"
							],
							"path": [
								"contactList"
							]
						}
					},
					"response": []
				},
				{
					"name": "Update Contact List",
					"request": {
						"method": "PUT",
						"header": [
							{
								"key": "Authorization",
								"value": "{{Authorization}}",
								"type": "text"
							}
						],
						"body": {
							"mode": "urlencoded",
							"urlencoded": [
								{
									"key": "name",
									"value": "",
									"type": "text"
								},
								{
									"key": "source",
									"value": "44444",
									"type": "text"
								},
								{
									"key": "_method",
									"value": "PUT",
									"type": "text"
								},
								{
									"key": "id",
									"value": "1",
									"type": "text"
								}
							]
						},
						"url": {
							"raw": "{{host}}/contactList",
							"host": [
								"{{host}}"
							],
							"path": [
								"contactList"
							]
						}
					},
					"response": []
				},
				{
					"name": "get all contact list",
					"request": {
						"method": "GET",
						"header": [
							{
								"key": "Accept",
								"value": "application/json",
								"type": "text"
							},
							{
								"key": "Authorization",
								"value": "{{Authorization}}",
								"type": "text"
							}
						],
						"url": {
							"raw": "{{host}}/allContactList",
							"host": [
								"{{host}}"
							],
							"path": [
								"allContactList"
							]
						}
					},
					"response": []
				},
				{
					"name": "Get Contact  By Contact List Id",
					"request": {
						"method": "GET",
						"header": [
							{
								"key": "Authorization",
								"value": "{{Authorization}}",
								"type": "text"
							},
							{
								"key": "Accept",
								"value": "application/json",
								"type": "text"
							}
						],
						"url": {
							"raw": "{{host}}/contactList/contacts?id=1&search=333",
							"host": [
								"{{host}}"
							],
							"path": [
								"contactList",
								"contacts"
							],
							"query": [
								{
									"key": "id",
									"value": "1",
									"description": "id contact list"
								},
								{
									"key": "search",
									"value": "333",
									"description": "search theo name website, email"
								}
							]
						}
					},
					"response": []
				}
			]
		},
		{
			"name": "Contact Form",
			"item": [
				{
					"name": "list",
					"request": {
						"method": "GET",
						"header": [
							{
								"key": "Authorization",
								"value": "{{Authorization}}",
								"type": "text"
							}
						],
						"url": {
							"raw": "{{host}}/contactForm/?result=sent&flag=assign_me",
							"host": [
								"{{host}}"
							],
							"path": [
								"contactForm",
								""
							],
							"query": [
								{
									"key": "list",
									"value": "name1,name2",
									"description": " name list từ api get all contact list",
									"disabled": true
								},
								{
									"key": "result",
									"value": "sent",
									"description": "có thể 1 hoặc nhiều cách nhau dấu phấy todo,sent,unsent"
								},
								{
									"key": "flag",
									"value": "assign_me",
									"description": "all|assign_me default all"
								},
								{
									"key": "flag",
									"value": "all",
									"disabled": true
								},
								{
									"key": "result",
									"value": "todo,unsend",
									"disabled": true
								}
							]
						}
					},
					"response": [
						{
							"name": "list",
							"originalRequest": {
								"method": "GET",
								"header": [
									{
										"key": "Authorization",
										"value": "Bearer 2|bab421f61f0f100b7e485d7abc0ab72b3147368695d61a30df39c0e3acae265b",
										"type": "text"
									}
								],
								"url": {
									"raw": "http://localhost:8080/api/contactForm/?flag=assign_me",
									"protocol": "http",
									"host": [
										"localhost"
									],
									"port": "8080",
									"path": [
										"api",
										"contactForm",
										""
									],
									"query": [
										{
											"key": "flag",
											"value": "assign_me"
										},
										{
											"key": "flag",
											"value": "all",
											"disabled": true
										},
										{
											"key": "result",
											"value": "todo,unsend",
											"disabled": true
										}
									]
								}
							},
							"_postman_previewlanguage": null,
							"header": null,
							"cookie": [],
							"body": null
						}
					]
				},
				{
					"name": "Result",
					"request": {
						"method": "POST",
						"header": [
							{
								"key": "Authorization",
								"value": "{{Authorization}}",
								"type": "text"
							}
						],
						"body": {
							"mode": "formdata",
							"formdata": [
								{
									"key": "result",
									"value": "send",
									"description": "1 trong 3 : todo , send, unsend",
									"type": "text"
								},
								{
									"key": "note",
									"value": "dummy text",
									"type": "text"
								},
								{
									"key": "image",
									"type": "file",
									"src": "7-VXMDx-n/627-780x1040.jpeg"
								},
								{
									"key": "id",
									"value": "",
									"description": "/contactForm/{{id}}/result/ với sử dụng id từ api list contact form {{host}}/contactForm",
									"type": "text",
									"disabled": true
								},
								{
									"key": "result",
									"value": "todo",
									"type": "text",
									"disabled": true
								}
							]
						},
						"url": {
							"raw": "{{host}}/contactForm/33/result/",
							"host": [
								"{{host}}"
							],
							"path": [
								"contactForm",
								"33",
								"result",
								""
							]
						}
					},
					"response": []
				},
				{
					"name": "Get Contact",
					"request": {
						"auth": {
							"type": "bearer",
							"bearer": [
								{
									"key": "token",
									"value": "{{Authorization}}",
									"type": "string"
								}
							]
						},
						"method": "POST",
						"header": [
							{
								"key": "Authorization",
								"value": "{{Authorization}}",
								"type": "text"
							}
						],
						"body": {
							"mode": "urlencoded",
							"urlencoded": [
								{
									"key": "contact_list_id",
									"value": "2",
									"description": " lấy từ id api  get all contact list",
									"type": "text"
								},
								{
									"key": "number",
									"value": "2",
									"type": "text"
								}
							]
						},
						"url": {
							"raw": "{{host}}/contactForm/getContact",
							"host": [
								"{{host}}"
							],
							"path": [
								"contactForm",
								"getContact"
							]
						}
					},
					"response": []
				}
			]
		},
		{
			"name": "Login Google",
			"item": [
				{
					"name": "get Url Login Google",
					"request": {
						"method": "GET",
						"header": [],
						"url": {
							"raw": "{{host}}/auth/google/url",
							"host": [
								"{{host}}"
							],
							"path": [
								"auth",
								"google",
								"url"
							]
						}
					},
					"response": []
				},
				{
					"name": "Url Google Callback",
					"request": {
						"method": "GET",
						"header": [],
						"url": {
							"raw": "{{host}}/auth/google/callback",
							"host": [
								"{{host}}"
							],
							"path": [
								"auth",
								"google",
								"callback"
							]
						}
					},
					"response": []
				}
			]
		},
		{
			"name": "Filter",
			"item": [
				{
					"name": "Get",
					"request": {
						"method": "GET",
						"header": [
							{
								"key": "Authorization",
								"value": "{{Authorization}}",
								"type": "text"
							}
						],
						"url": {
							"raw": "{{host}}/filter?type=contact",
							"host": [
								"{{host}}"
							],
							"path": [
								"filter"
							],
							"query": [
								{
									"key": "type",
									"value": "contact"
								}
							]
						}
					},
					"response": []
				},
				{
					"name": "Show",
					"request": {
						"method": "GET",
						"header": [
							{
								"key": "Authorization",
								"value": "{{Authorization}}",
								"type": "text"
							}
						],
						"url": {
							"raw": "{{host}}/filter/show?id=1",
							"host": [
								"{{host}}"
							],
							"path": [
								"filter",
								"show"
							],
							"query": [
								{
									"key": "id",
									"value": "1"
								}
							]
						}
					},
					"response": []
				},
				{
					"name": "Create Filter",
					"request": {
						"method": "POST",
						"header": [
							{
								"key": "Authorization",
								"value": "{{Authorization}}",
								"type": "text"
							}
						],
						"body": {
							"mode": "raw",
							"raw": "{\n    \"type\": \"contact\",\n    \"name\": \"test name\",\n    \"data\": {\n        \"units\": [\n            \"jmu\"\n        ],\n        \"search\": \"123123\",\n        \"stages\": [\n            \"iql\"\n        ],\n        \"contact_list_id\":[1,2,4],\n        \"create_date_start\":\"24-02-2023\",\n        \"create_date_end\":\"24-02-2023\",\n        \"update_date_start\":\"24-02-2023\",\n        \"update_date_end\":\"24-02-2023\",\n    }\n}",
							"options": {
								"raw": {
									"language": "json"
								}
							}
						},
						"url": {
							"raw": "{{host}}/filter/store",
							"host": [
								"{{host}}"
							],
							"path": [
								"filter",
								"store"
							]
						}
					},
					"response": []
				},
				{
					"name": "Update Filter",
					"request": {
						"method": "PUT",
						"header": [
							{
								"key": "Authorization",
								"value": "{{Authorization}}",
								"type": "text"
							}
						],
						"body": {
							"mode": "urlencoded",
							"urlencoded": [
								{
									"key": "id",
									"value": "23",
									"description": "id filter owner user",
									"type": "text"
								},
								{
									"key": "name",
									"value": "name abc",
									"type": "text"
								},
								{
									"key": "data",
									"value": "{\"unit\": \"vmu,jmu,emu\", \"stage\": \"iql,mql,sql,potential_customer\", \"search\": \"text search\"}",
									"type": "text",
									"disabled": true
								},
								{
									"key": "_method",
									"value": "put",
									"type": "text",
									"disabled": true
								},
								{
									"key": "search[]",
									"value": "12312342342",
									"type": "text"
								},
								{
									"key": "units[]",
									"value": "jmu",
									"type": "text"
								},
								{
									"key": "stages[]",
									"value": "iql",
									"type": "text"
								},
								{
									"key": "stages[]",
									"value": "mql",
									"type": "text"
								}
							]
						},
						"url": {
							"raw": "{{host}}/filter/update",
							"host": [
								"{{host}}"
							],
							"path": [
								"filter",
								"update"
							]
						}
					},
					"response": []
				},
				{
					"name": "Delete Filter",
					"request": {
						"method": "DELETE",
						"header": [
							{
								"key": "Authorization",
								"value": "{{Authorization}}",
								"type": "text"
							}
						],
						"body": {
							"mode": "urlencoded",
							"urlencoded": []
						},
						"url": {
							"raw": "{{host}}/filter/destroy?id=2",
							"host": [
								"{{host}}"
							],
							"path": [
								"filter",
								"destroy"
							],
							"query": [
								{
									"key": "id",
									"value": "2"
								},
								{
									"key": "_method",
									"value": "delete",
									"disabled": true
								}
							]
						}
					},
					"response": []
				}
			]
		},
		{
			"name": "Report",
			"item": [
				{
					"name": "report",
					"request": {
						"method": "GET",
						"header": [
							{
								"key": "Authorization",
								"value": "{{Authorization}}",
								"type": "text"
							}
						],
						"url": {
							"raw": "{{host}}/report?type=date&start_date=20-3-2023&end_date=20-3-2023",
							"host": [
								"{{host}}"
							],
							"path": [
								"report"
							],
							"query": [
								{
									"key": "contact_list_id",
									"value": "1",
									"disabled": true
								},
								{
									"key": "type",
									"value": "date",
									"description": "month|week|date"
								},
								{
									"key": "start_date",
									"value": "20-3-2023",
									"description": "d-m-y, bắt buộc với type = date"
								},
								{
									"key": "end_date",
									"value": "20-3-2023",
									"description": "d-m-y, bắt buộc với type = date, lớn hơn hoặc bằng ngày bắt đầu"
								}
							]
						}
					},
					"response": []
				}
			]
		},
		{
			"name": "Note",
			"item": [
				{
					"name": "list Note",
					"request": {
						"method": "GET",
						"header": [
							{
								"key": "Authorization",
								"value": "{{Authorization}}",
								"type": "text"
							}
						],
						"url": {
							"raw": "{{host}}/note?contact_id=1&search=abc",
							"host": [
								"{{host}}"
							],
							"path": [
								"note"
							],
							"query": [
								{
									"key": "contact_id",
									"value": "1",
									"description": "bắt buộc"
								},
								{
									"key": "search",
									"value": "abc"
								}
							]
						}
					},
					"response": []
				},
				{
					"name": "show Note",
					"request": {
						"method": "GET",
						"header": [
							{
								"key": "Authorization",
								"value": "{{Authorization}}",
								"type": "text"
							}
						],
						"url": {
							"raw": "{{host}}/note/show?id=1",
							"host": [
								"{{host}}"
							],
							"path": [
								"note",
								"show"
							],
							"query": [
								{
									"key": "id",
									"value": "1",
									"description": "bắt buộc"
								}
							]
						}
					},
					"response": []
				},
				{
					"name": "create note",
					"request": {
						"method": "POST",
						"header": [
							{
								"key": "Authorization",
								"value": "{{Authorization}}",
								"type": "text"
							}
						],
						"body": {
							"mode": "formdata",
							"formdata": [
								{
									"key": "noteable_id",
									"value": "279",
									"description": "bắt buộc, tồn tại trong bảng ",
									"type": "text"
								},
								{
									"key": "note",
									"value": "2222222",
									"description": "bắt buộc, max=1000000",
									"type": "text"
								},
								{
									"key": "noteable_type",
									"value": "contact",
									"description": "contact|deal",
									"type": "text"
								}
							]
						},
						"url": {
							"raw": "{{host}}/note/store",
							"host": [
								"{{host}}"
							],
							"path": [
								"note",
								"store"
							]
						}
					},
					"response": []
				},
				{
					"name": "edit note",
					"request": {
						"method": "POST",
						"header": [
							{
								"key": "Authorization",
								"value": "{{Authorization}}",
								"type": "text"
							}
						],
						"body": {
							"mode": "formdata",
							"formdata": [
								{
									"key": "noteable_id",
									"value": "279",
									"description": "bắt buộc, tồn tại trong bảng contact",
									"type": "text"
								},
								{
									"key": "note",
									"value": "ádasd1111",
									"description": "bắt buộc, max=1000000",
									"type": "text"
								},
								{
									"key": "id",
									"value": "1",
									"description": "user tạo id này mới được udapte",
									"type": "text"
								},
								{
									"key": "noteable_type",
									"value": "contact",
									"description": "contact|deal",
									"type": "text"
								},
								{
									"key": "_method",
									"value": "put",
									"type": "text"
								}
							]
						},
						"url": {
							"raw": "{{host}}/note/update",
							"host": [
								"{{host}}"
							],
							"path": [
								"note",
								"update"
							]
						}
					},
					"response": []
				},
				{
					"name": "delete note",
					"request": {
						"method": "POST",
						"header": [
							{
								"key": "Authorization",
								"value": "{{Authorization}}",
								"type": "text"
							}
						],
						"body": {
							"mode": "formdata",
							"formdata": [
								{
									"key": "id",
									"value": "2",
									"description": "user tạo id này mới được delete",
									"type": "text"
								},
								{
									"key": "_method",
									"value": "delete",
									"type": "text"
								}
							]
						},
						"url": {
							"raw": "{{host}}/note/destroy",
							"host": [
								"{{host}}"
							],
							"path": [
								"note",
								"destroy"
							]
						}
					},
					"response": []
				}
			]
		},
		{
			"name": "Task",
			"item": [
				{
					"name": "list task",
					"request": {
						"method": "GET",
						"header": [
							{
								"key": "Authorization",
								"value": "{{Authorization}}"
							}
						],
						"url": {
							"raw": "{{host}}/task/list?type=1",
							"host": [
								"{{host}}"
							],
							"path": [
								"task",
								"list"
							],
							"query": [
								{
									"key": "search",
									"value": "trang",
									"disabled": true
								},
								{
									"key": "object",
									"value": "contact",
									"description": "contact|deal",
									"disabled": true
								},
								{
									"key": "type",
									"value": "1"
								},
								{
									"key": "result",
									"value": "doing",
									"description": "filter theo text",
									"disabled": true
								},
								{
									"key": "unit",
									"value": "2",
									"disabled": true
								},
								{
									"key": "flag",
									"value": "my_task",
									"disabled": true
								}
							]
						}
					},
					"response": []
				},
				{
					"name": "list task of model id",
					"request": {
						"method": "GET",
						"header": [
							{
								"key": "Authorization",
								"value": "{{Authorization}}",
								"type": "text"
							}
						],
						"url": {
							"raw": "{{host}}/task/listById?model_id=75&search=345345&taskable_type=contact&type=all",
							"host": [
								"{{host}}"
							],
							"path": [
								"task",
								"listById"
							],
							"query": [
								{
									"key": "model_id",
									"value": "75",
									"description": "bắt buộc"
								},
								{
									"key": "search",
									"value": "345345"
								},
								{
									"key": "taskable_type",
									"value": "contact"
								},
								{
									"key": "type",
									"value": "all",
									"description": "'all', 'to-do', 'mail', 'call', 'meet'"
								}
							]
						}
					},
					"response": []
				},
				{
					"name": "show task",
					"request": {
						"method": "GET",
						"header": [
							{
								"key": "Authorization",
								"value": "{{Authorization}}",
								"type": "text"
							}
						],
						"url": {
							"raw": "{{host}}/task/show?id=1",
							"host": [
								"{{host}}"
							],
							"path": [
								"task",
								"show"
							],
							"query": [
								{
									"key": "id",
									"value": "1",
									"description": "bắt buộc"
								}
							]
						}
					},
					"response": []
				},
				{
					"name": "task results",
					"request": {
						"method": "PUT",
						"header": [
							{
								"key": "Authorization",
								"value": "{{Authorization}}",
								"type": "text"
							}
						],
						"body": {
							"mode": "urlencoded",
							"urlencoded": [
								{
									"key": "id",
									"value": "1",
									"type": "text"
								},
								{
									"key": "task_result_id",
									"value": "1",
									"type": "text"
								}
							]
						},
						"url": {
							"raw": "{{host}}/tasks/updateResult",
							"host": [
								"{{host}}"
							],
							"path": [
								"tasks",
								"updateResult"
							]
						}
					},
					"response": []
				},
				{
					"name": "task taskTypes",
					"request": {
						"method": "GET",
						"header": [
							{
								"key": "Authorization",
								"value": "{{Authorization}}",
								"type": "text"
							}
						],
						"url": {
							"raw": "{{host}}/taskTypes",
							"host": [
								"{{host}}"
							],
							"path": [
								"taskTypes"
							]
						}
					},
					"response": []
				},
				{
					"name": "create task",
					"request": {
						"method": "POST",
						"header": [
							{
								"key": "Authorization",
								"value": "{{Authorization}}",
								"type": "text"
							}
						],
						"body": {
							"mode": "urlencoded",
							"urlencoded": [
								{
									"key": "model_id",
									"value": "331635",
									"description": "id của contact hoặc deal",
									"type": "text"
								},
								{
									"key": "taskable_type",
									"value": "contact",
									"description": "contact|deal",
									"type": "text"
								},
								{
									"key": "note",
									"value": "<p>777</p> <p>kjsdhf</p> <p>kjhdsf</p> <p>&nbsp;</p>",
									"description": "max: 1000000, không bắt buộc",
									"type": "text"
								},
								{
									"key": "name",
									"value": "13123123",
									"description": "max: 255 bắt buộc",
									"type": "text"
								},
								{
									"key": "assign_user_id",
									"value": "1",
									"type": "text"
								},
								{
									"key": "task_type_id",
									"value": "1",
									"type": "text"
								},
								{
									"key": "deadline_date",
									"value": "2023/04/03",
									"type": "text"
								},
								{
									"key": "deadline_time",
									"value": "12:48",
									"type": "text"
								}
							]
						},
						"url": {
							"raw": "{{host}}/task/store",
							"host": [
								"{{host}}"
							],
							"path": [
								"task",
								"store"
							]
						}
					},
					"response": []
				},
				{
					"name": "edit task",
					"request": {
						"method": "POST",
						"header": [
							{
								"key": "Authorization",
								"value": "{{Authorization}}",
								"type": "text"
							}
						],
						"body": {
							"mode": "formdata",
							"formdata": [
								{
									"key": "_method",
									"value": "put",
									"type": "text"
								},
								{
									"key": "id",
									"value": "33",
									"type": "text"
								},
								{
									"key": "model_id",
									"value": "75",
									"type": "text"
								},
								{
									"key": "taskable_type",
									"value": "contact",
									"type": "text"
								},
								{
									"key": "note",
									"value": "<p>777</p> <p>kjsdhf</p> <p>kjhdsf</p> <p>&nbsp;</p>",
									"type": "text"
								},
								{
									"key": "name",
									"value": "13123123ádasdasdasd",
									"type": "text"
								},
								{
									"key": "assign_user_id",
									"value": "1",
									"type": "text"
								},
								{
									"key": "task_type_id",
									"value": "1",
									"type": "text"
								},
								{
									"key": "deadline_date",
									"value": "2023/04/03",
									"type": "text"
								},
								{
									"key": "deadline_time",
									"value": "12:48",
									"type": "text"
								},
								{
									"key": "task_result_id",
									"value": "1",
									"type": "text"
								}
							]
						},
						"url": {
							"raw": "{{host}}/task/update",
							"host": [
								"{{host}}"
							],
							"path": [
								"task",
								"update"
							]
						}
					},
					"response": []
				},
				{
					"name": "delete task",
					"request": {
						"method": "POST",
						"header": [
							{
								"key": "Authorization",
								"value": "{{Authorization}}",
								"type": "text"
							}
						],
						"body": {
							"mode": "formdata",
							"formdata": [
								{
									"key": "id",
									"value": "2",
									"description": "user tạo id này mới được delete",
									"type": "text"
								},
								{
									"key": "_method",
									"value": "delete",
									"type": "text"
								}
							]
						},
						"url": {
							"raw": "{{host}}/task/destroy",
							"host": [
								"{{host}}"
							],
							"path": [
								"task",
								"destroy"
							]
						}
					},
					"response": []
				}
			]
		},
		{
			"name": "Team",
			"item": [
				{
					"name": "list team",
					"request": {
						"method": "GET",
						"header": [
							{
								"key": "Authorization",
								"value": "{{Authorization}}",
								"type": "text"
							}
						],
						"url": {
							"raw": "{{host}}/team?search&unit&create_date_start&create_date_end&update_date_start&update_date_end",
							"host": [
								"{{host}}"
							],
							"path": [
								"team"
							],
							"query": [
								{
									"key": "search",
									"value": null
								},
								{
									"key": "unit",
									"value": null
								},
								{
									"key": "create_date_start",
									"value": null
								},
								{
									"key": "create_date_end",
									"value": null
								},
								{
									"key": "update_date_start",
									"value": null
								},
								{
									"key": "update_date_end",
									"value": null
								}
							]
						}
					},
					"response": []
				},
				{
					"name": "show team",
					"request": {
						"method": "GET",
						"header": [
							{
								"key": "Authorization",
								"value": "{{Authorization}}",
								"type": "text"
							}
						],
						"url": {
							"raw": "{{host}}/team/show?id=1",
							"host": [
								"{{host}}"
							],
							"path": [
								"team",
								"show"
							],
							"query": [
								{
									"key": "id",
									"value": "1",
									"description": "bắt buộc"
								}
							]
						}
					},
					"response": []
				},
				{
					"name": "create team",
					"request": {
						"method": "POST",
						"header": [
							{
								"key": "Authorization",
								"value": "{{Authorization}}",
								"type": "text"
							}
						],
						"body": {
							"mode": "urlencoded",
							"urlencoded": [
								{
									"key": "name",
									"value": "team a3",
									"description": "max: 255 bắt buộc, không trùng",
									"type": "text"
								},
								{
									"key": "unit_id",
									"value": "1",
									"type": "text"
								},
								{
									"key": "user_ids[]",
									"value": "1",
									"type": "text"
								},
								{
									"key": "user_ids[]",
									"value": "2",
									"type": "text"
								},
								{
									"key": "manager_id",
									"value": "1",
									"type": "text"
								}
							]
						},
						"url": {
							"raw": "{{host}}/team/store",
							"host": [
								"{{host}}"
							],
							"path": [
								"team",
								"store"
							]
						}
					},
					"response": []
				},
				{
					"name": "edit team",
					"request": {
						"method": "POST",
						"header": [
							{
								"key": "Authorization",
								"value": "{{Authorization}}",
								"type": "text"
							}
						],
						"body": {
							"mode": "formdata",
							"formdata": [
								{
									"key": "id",
									"value": "5",
									"type": "text"
								},
								{
									"key": "name",
									"value": "trang",
									"type": "text"
								},
								{
									"key": "unit_id",
									"value": "1",
									"type": "text"
								},
								{
									"key": "user_ids[]",
									"value": "1",
									"type": "text"
								},
								{
									"key": "user_ids[]",
									"value": "5",
									"type": "text"
								},
								{
									"key": "manager_id",
									"value": "1",
									"type": "text"
								},
								{
									"key": "_method",
									"value": "put",
									"type": "text"
								}
							]
						},
						"url": {
							"raw": "{{host}}/team/update",
							"host": [
								"{{host}}"
							],
							"path": [
								"team",
								"update"
							]
						}
					},
					"response": []
				},
				{
					"name": "delete team",
					"request": {
						"method": "POST",
						"header": [
							{
								"key": "Authorization",
								"value": "{{Authorization}}",
								"type": "text"
							}
						],
						"body": {
							"mode": "formdata",
							"formdata": [
								{
									"key": "id[]",
									"value": "3",
									"type": "text"
								},
								{
									"key": "id[]",
									"value": "4",
									"type": "text"
								},
								{
									"key": "_method",
									"value": "delete",
									"type": "text"
								}
							]
						},
						"url": {
							"raw": "{{host}}/team/destroy",
							"host": [
								"{{host}}"
							],
							"path": [
								"team",
								"destroy"
							]
						}
					},
					"response": []
				},
				{
					"name": "list all team for input",
					"request": {
						"method": "GET",
						"header": [
							{
								"key": "Authorization",
								"value": "{{Authorization}}",
								"type": "text"
							}
						],
						"url": {
							"raw": "{{host}}/team/inputTeam?search=te&user_id=1",
							"host": [
								"{{host}}"
							],
							"path": [
								"team",
								"inputTeam"
							],
							"query": [
								{
									"key": "search",
									"value": "te"
								},
								{
									"key": "user_id",
									"value": "1"
								}
							]
						}
					},
					"response": []
				}
			]
		},
		{
			"name": "Deal",
			"item": [
				{
					"name": "list deal",
					"request": {
						"auth": {
							"type": "bearer",
							"bearer": [
								{
									"key": "token",
									"value": "55|WEo5l9XBEhxFiPq3sZruAsEwF8vsgK8nWJAnedh9",
									"type": "string"
								}
							]
						},
						"method": "GET",
						"header": [
							{
								"key": "Authorization",
								"value": "{{Authorization}}",
								"type": "text"
							}
						],
						"url": {
							"raw": "{{host_server}}deal",
							"host": [
								"{{host_server}}deal"
							],
							"query": [
								{
									"key": "flag",
									"value": "my_deal",
									"disabled": true
								},
								{
									"key": "stage",
									"value": "1,2,3",
									"disabled": true
								},
								{
									"key": "team",
									"value": "1,2,3",
									"disabled": true
								},
								{
									"key": "user",
									"value": "1,2,3",
									"disabled": true
								}
							]
						}
					},
					"response": []
				},
				{
					"name": "Get stage deal",
					"request": {
						"method": "GET",
						"header": [
							{
								"key": "Authorization",
								"value": "{{Authorization}}",
								"type": "text"
							}
						],
						"url": {
							"raw": "{{host}}/stageDeals",
							"host": [
								"{{host}}"
							],
							"path": [
								"stageDeals"
							],
							"query": [
								{
									"key": "flag",
									"value": "my_deal",
									"disabled": true
								},
								{
									"key": "stage",
									"value": "1,2,3",
									"disabled": true
								},
								{
									"key": "team",
									"value": "1,2,3",
									"disabled": true
								}
							]
						}
					},
					"response": []
				},
				{
					"name": "show deal",
					"request": {
						"method": "GET",
						"header": [
							{
								"key": "Authorization",
								"value": "{{Authorization}}",
								"type": "text"
							}
						],
						"url": {
							"raw": "{{host}}/deal/show?id=1",
							"host": [
								"{{host}}"
							],
							"path": [
								"deal",
								"show"
							],
							"query": [
								{
									"key": "id",
									"value": "1",
									"description": "bắt buộc"
								}
							]
						}
					},
					"response": []
				},
				{
					"name": "create deal",
					"request": {
						"method": "POST",
						"header": [
							{
								"key": "Authorization",
								"value": "{{Authorization}}",
								"type": "text"
							}
						],
						"body": {
							"mode": "urlencoded",
							"urlencoded": [
								{
									"key": "name",
									"value": "deal 11",
									"description": " bắt buộc , max 255",
									"type": "text"
								},
								{
									"key": "contact_ids[]",
									"value": "10782",
									"description": " bắt buộc ",
									"type": "text"
								},
								{
									"key": "contact_point_ids[]",
									"value": "33",
									"type": "text"
								},
								{
									"key": "user_id",
									"value": "2",
									"type": "text"
								},
								{
									"key": "team_id",
									"value": "7",
									"type": "text"
								},
								{
									"key": "stage",
									"value": "estimating",
									"description": "'new_opportunity', 'estimating', 'negotiating', 'won', 'lost', 'developing', 'closed'",
									"type": "text"
								},
								{
									"key": "closing_date",
									"value": "2023-04-12",
									"type": "text"
								},
								{
									"key": "revenue",
									"value": "9999999",
									"description": "max:999999999999",
									"type": "text"
								},
								{
									"key": "currency_id",
									"value": "1",
									"type": "text"
								}
							]
						},
						"url": {
							"raw": "{{host}}/deal/store",
							"host": [
								"{{host}}"
							],
							"path": [
								"deal",
								"store"
							]
						}
					},
					"response": []
				},
				{
					"name": "Delete contact",
					"request": {
						"method": "DELETE",
						"header": [
							{
								"key": "Authorization",
								"value": "{{Authorization}}",
								"type": "text"
							}
						],
						"body": {
							"mode": "urlencoded",
							"urlencoded": [
								{
									"key": "id",
									"value": "1",
									"description": "deal id",
									"type": "text"
								},
								{
									"key": "delete_ids[0]",
									"value": "1",
									"description": "deleted_ids can be an id or an array of ids",
									"type": "text"
								},
								{
									"key": "delete_ids[1]",
									"value": "2",
									"description": "deleted_ids can be an id or an array of ids",
									"type": "text"
								}
							]
						},
						"url": {
							"raw": "{{host}}/deal/contacts/delete",
							"host": [
								"{{host}}"
							],
							"path": [
								"deal",
								"contacts",
								"delete"
							]
						}
					},
					"response": []
				},
				{
					"name": "Delete contact points",
					"request": {
						"method": "DELETE",
						"header": [
							{
								"key": "Authorization",
								"value": "{{Authorization}}",
								"type": "text"
							}
						],
						"body": {
							"mode": "urlencoded",
							"urlencoded": [
								{
									"key": "id",
									"value": "1",
									"description": "deal id",
									"type": "text"
								},
								{
									"key": "delete_ids[0]",
									"value": "1",
									"description": "deleted_ids can be an id or an array of ids",
									"type": "text"
								},
								{
									"key": "delete_ids[1]",
									"value": "2",
									"description": "deleted_ids can be an id or an array of ids",
									"type": "text"
								}
							]
						},
						"url": {
							"raw": "{{host}}/deal/contactPoints/delete",
							"host": [
								"{{host}}"
							],
							"path": [
								"deal",
								"contactPoints",
								"delete"
							]
						}
					},
					"response": []
				},
				{
					"name": "edit deal",
					"request": {
						"method": "PUT",
						"header": [
							{
								"key": "Authorization",
								"value": "{{Authorization}}",
								"type": "text"
							}
						],
						"body": {
							"mode": "formdata",
							"formdata": [
								{
									"key": "id",
									"value": "1",
									"type": "text"
								},
								{
									"key": "name",
									"value": "trang",
									"description": "string",
									"type": "text"
								},
								{
									"key": "user_id",
									"value": "1",
									"description": "id",
									"type": "text"
								},
								{
									"key": "stage_id",
									"value": "1",
									"description": "id",
									"type": "text"
								},
								{
									"key": "closing_date",
									"value": "2023-04-30 12:00:00",
									"description": "datetime",
									"type": "text"
								},
								{
									"key": "revenue",
									"value": "1000",
									"description": "numeric",
									"type": "text"
								},
								{
									"key": "currency_id",
									"value": "1",
									"description": "id",
									"type": "text"
								},
								{
									"key": "link_quotation",
									"value": "link quotation",
									"description": "string, max:255",
									"type": "text"
								},
								{
									"key": "team_id",
									"value": "1",
									"description": "id",
									"type": "text"
								},
								{
									"key": "contact_ids[]",
									"value": "1",
									"description": "ids",
									"type": "text"
								},
								{
									"key": "contact_point_ids",
									"value": "1",
									"description": "ids",
									"type": "text"
								},
								{
									"key": "_method",
									"value": "put",
									"type": "text"
								}
							]
						},
						"url": {
							"raw": "{{host}}/deal/update",
							"host": [
								"{{host}}"
							],
							"path": [
								"deal",
								"update"
							]
						}
					},
					"response": []
				},
				{
					"name": "delete deal",
					"request": {
						"method": "POST",
						"header": [
							{
								"key": "Authorization",
								"value": "{{Authorization}}",
								"type": "text"
							}
						],
						"body": {
							"mode": "formdata",
							"formdata": [
								{
									"key": "deal_ids",
									"value": "1",
									"description": "id hoặc array id",
									"type": "text"
								},
								{
									"key": "_method",
									"value": "delete",
									"type": "text"
								}
							]
						},
						"url": {
							"raw": "{{host}}/deal/destroy",
							"host": [
								"{{host}}"
							],
							"path": [
								"deal",
								"destroy"
							]
						}
					},
					"response": []
				},
				{
					"name": "add contact",
					"request": {
						"method": "POST",
						"header": [
							{
								"key": "Authorization",
								"value": "{{Authorization}}",
								"type": "text"
							}
						],
						"body": {
							"mode": "urlencoded",
							"urlencoded": [
								{
									"key": "id",
									"value": "1",
									"description": "deal id",
									"type": "text"
								},
								{
									"key": "add_ids[0]",
									"value": "1",
									"type": "text"
								},
								{
									"key": "add_ids[1]",
									"value": "2",
									"type": "text"
								}
							]
						},
						"url": {
							"raw": "{{host}}/deal/contacts/add",
							"host": [
								"{{host}}"
							],
							"path": [
								"deal",
								"contacts",
								"add"
							]
						}
					},
					"response": []
				},
				{
					"name": "add contact point",
					"request": {
						"method": "POST",
						"header": [
							{
								"key": "Authorization",
								"value": "{{Authorization}}",
								"type": "text"
							}
						],
						"body": {
							"mode": "urlencoded",
							"urlencoded": [
								{
									"key": "id",
									"value": "1",
									"description": "deal id",
									"type": "text"
								},
								{
									"key": "add_ids[0]",
									"value": "1",
									"type": "text"
								},
								{
									"key": "add_ids[1]",
									"value": "2",
									"type": "text"
								}
							]
						},
						"url": {
							"raw": "{{host}}/deal/contactPoints/add",
							"host": [
								"{{host}}"
							],
							"path": [
								"deal",
								"contactPoints",
								"add"
							]
						}
					},
					"response": []
				},
				{
					"name": "list deal for input",
					"request": {
						"method": "GET",
						"header": [
							{
								"key": "Authorization",
								"value": "{{Authorization}}"
							}
						],
						"url": {
							"raw": "{{host}}/deal/inputDeal?search&contact_id=1",
							"host": [
								"{{host}}"
							],
							"path": [
								"deal",
								"inputDeal"
							],
							"query": [
								{
									"key": "search",
									"value": ""
								},
								{
									"key": "contact_id",
									"value": "1"
								}
							]
						}
					},
					"response": []
				}
			]
		},
		{
			"name": "User",
			"item": [
				{
					"name": "list all user for input",
					"request": {
						"method": "GET",
						"header": [
							{
								"key": "Authorization",
								"value": "{{Authorization}}",
								"type": "text"
							}
						],
						"url": {
							"raw": "{{host}}/user?search=tra",
							"host": [
								"{{host}}"
							],
							"path": [
								"user"
							],
							"query": [
								{
									"key": "search",
									"value": "tra"
								}
							]
						}
					},
					"response": []
				}
			]
		},
		{
			"name": "Unit",
			"item": [
				{
					"name": "list unit",
					"request": {
						"method": "GET",
						"header": [
							{
								"key": "Authorization",
								"value": "{{Authorization}}",
								"type": "text"
							}
						],
						"url": {
							"raw": "{{host}}/units",
							"host": [
								"{{host}}"
							],
							"path": [
								"units"
							]
						}
					},
					"response": []
				}
			]
		},
		{
			"name": "Currencies",
			"item": [
				{
					"name": "list currencies",
					"request": {
						"method": "GET",
						"header": [
							{
								"key": "Authorization",
								"value": "{{Authorization}}",
								"type": "text"
							}
						],
						"url": {
							"raw": "{{host}}/currencies",
							"host": [
								"{{host}}"
							],
							"path": [
								"currencies"
							]
						}
					},
					"response": []
				}
			]
		},
		{
			"name": "task Types",
			"item": [
				{
					"name": "list task types",
					"request": {
						"auth": {
							"type": "bearer",
							"bearer": [
								{
									"key": "token",
									"value": "55|WEo5l9XBEhxFiPq3sZruAsEwF8vsgK8nWJAnedh9",
									"type": "string"
								}
							]
						},
						"method": "GET",
						"header": [
							{
								"key": "Authorization",
								"value": "{{Authorization}}",
								"type": "text"
							}
						],
						"url": {
							"raw": "{{host_server}}taskTypes",
							"host": [
								"{{host_server}}taskTypes"
							]
						}
					},
					"response": []
				}
			]
		},
		{
			"name": "task results",
			"item": [
				{
					"name": "list task Types",
					"request": {
						"method": "GET",
						"header": [
							{
								"key": "Authorization",
								"value": "{{Authorization}}",
								"type": "text"
							}
						],
						"url": {
							"raw": "{{host}}/taskResults",
							"host": [
								"{{host}}"
							],
							"path": [
								"taskResults"
							]
						}
					},
					"response": []
				}
			]
		},
		{
			"name": "item",
			"item": [
				{
					"name": "listByDealId",
					"request": {
						"method": "GET",
						"header": [
							{
								"key": "Authorization",
								"value": "{{Authorization}}"
							}
						],
						"url": {
							"raw": "{{host}}/item/listByDealId?deal_id",
							"host": [
								"{{host}}"
							],
							"path": [
								"item",
								"listByDealId"
							],
							"query": [
								{
									"key": "deal_id",
									"value": ""
								}
							]
						}
					},
					"response": []
				},
				{
					"name": "Show",
					"request": {
						"method": "GET",
						"header": [
							{
								"key": "Authorization",
								"value": "{{Authorization}}"
							}
						],
						"url": {
							"raw": "{{host}}/item/show?id=1",
							"host": [
								"{{host}}"
							],
							"path": [
								"item",
								"show"
							],
							"query": [
								{
									"key": "id",
									"value": "1"
								}
							]
						}
					},
					"response": []
				},
				{
					"name": "Create or update",
					"request": {
						"method": "POST",
						"header": [
							{
								"key": "Authorization",
								"value": "{{Authorization}}"
							}
						],
						"body": {
							"mode": "urlencoded",
							"urlencoded": [
								{
									"key": "data",
									"value": "",
									"type": "text"
								}
							],
							"options": {
								"urlencoded": {
									"language": "json"
								}
							}
						},
						"url": {
							"raw": "{{host}}/item/updateOrCreate",
							"host": [
								"{{host}}"
							],
							"path": [
								"item",
								"updateOrCreate"
							]
						}
					},
					"response": []
				},
				{
					"name": "Delete Filter",
					"request": {
						"method": "DELETE",
						"header": [
							{
								"key": "Authorization",
								"value": "{{Authorization}}"
							}
						],
						"body": {
							"mode": "urlencoded",
							"urlencoded": []
						},
						"url": {
							"raw": "{{host}}/filter/destroy?id=2",
							"host": [
								"{{host}}"
							],
							"path": [
								"filter",
								"destroy"
							],
							"query": [
								{
									"key": "id",
									"value": "2"
								},
								{
									"key": "_method",
									"value": "delete",
									"disabled": true
								}
							]
						}
					},
					"response": []
				}
			]
		}
	],
	"variable": [
		{
			"key": "host",
			"value": "localhost:8080"
		},
		{
			"key": "http://localhost:8080/api",
			"value": "{{host}}"
		},
		{
			"key": "host_server",
			"value": "http://118.71.204.98/api/"
		},
		{
			"key": "host_local",
			"value": "http://localhost:8080/api/"
		}
	]
}